EESchema Schematic File Version 4
EELAYER 30 0
EELAYER END
$Descr A4 11693 8268
encoding utf-8
Sheet 1 1
Title ""
Date ""
Rev ""
Comp ""
Comment1 ""
Comment2 ""
Comment3 ""
Comment4 ""
$EndDescr
$Comp
L Device:Q_NPN_BEC Q3
U 1 1 606CA857
P 6400 2650
F 0 "Q3" H 6591 2696 50  0000 L CNN
F 1 "BFR93A" H 6591 2605 50  0000 L CNN
F 2 "Package_TO_SOT_SMD:SOT-23" H 6600 2750 50  0001 C CNN
F 3 "~" H 6400 2650 50  0001 C CNN
	1    6400 2650
	1    0    0    -1  
$EndComp
$Comp
L Device:Q_NPN_BEC Q5
U 1 1 606CBEBC
P 8250 2650
F 0 "Q5" H 8441 2696 50  0000 L CNN
F 1 "BFR93A" H 8441 2605 50  0000 L CNN
F 2 "Package_TO_SOT_SMD:SOT-23" H 8450 2750 50  0001 C CNN
F 3 "~" H 8250 2650 50  0001 C CNN
	1    8250 2650
	1    0    0    -1  
$EndComp
$Comp
L Device:Q_PNP_BEC Q4
U 1 1 606CC14A
P 6400 4600
F 0 "Q4" H 6590 4554 50  0000 L CNN
F 1 "NTE2403" H 6590 4645 50  0000 L CNN
F 2 "Package_TO_SOT_SMD:SOT-23" H 6600 4700 50  0001 C CNN
F 3 "~" H 6400 4600 50  0001 C CNN
	1    6400 4600
	1    0    0    1   
$EndComp
$Comp
L Device:Q_PNP_BEC Q6
U 1 1 606CD705
P 8250 4600
F 0 "Q6" H 8440 4554 50  0000 L CNN
F 1 "NTE2403" H 8440 4645 50  0000 L CNN
F 2 "Package_TO_SOT_SMD:SOT-23" H 8450 4700 50  0001 C CNN
F 3 "~" H 8250 4600 50  0001 C CNN
	1    8250 4600
	1    0    0    1   
$EndComp
$Comp
L Device:R R15
U 1 1 606CF8B0
P 8350 3100
F 0 "R15" H 8420 3146 50  0000 L CNN
F 1 "1R" H 8420 3055 50  0000 L CNN
F 2 "Resistor_SMD:R_0805_2012Metric_Pad1.15x1.40mm_HandSolder" V 8280 3100 50  0001 C CNN
F 3 "~" H 8350 3100 50  0001 C CNN
	1    8350 3100
	1    0    0    -1  
$EndComp
$Comp
L Device:R R16
U 1 1 606D017B
P 8350 4150
F 0 "R16" H 8420 4196 50  0000 L CNN
F 1 "1R" H 8420 4105 50  0000 L CNN
F 2 "Resistor_SMD:R_0805_2012Metric_Pad1.15x1.40mm_HandSolder" V 8280 4150 50  0001 C CNN
F 3 "~" H 8350 4150 50  0001 C CNN
	1    8350 4150
	1    0    0    -1  
$EndComp
Wire Wire Line
	8350 3650 8600 3650
Wire Wire Line
	8350 2950 8350 2850
Wire Wire Line
	8350 4300 8350 4400
$Comp
L Device:R R18
U 1 1 606D0CC2
P 8750 3650
F 0 "R18" V 8543 3650 50  0000 C CNN
F 1 "47R" V 8634 3650 50  0000 C CNN
F 2 "Resistor_SMD:R_0805_2012Metric_Pad1.15x1.40mm_HandSolder" V 8680 3650 50  0001 C CNN
F 3 "~" H 8750 3650 50  0001 C CNN
	1    8750 3650
	0    1    1    0   
$EndComp
$Comp
L Device:R R14
U 1 1 606D1E9D
P 8350 1800
F 0 "R14" H 8420 1846 50  0000 L CNN
F 1 "820R" H 8420 1755 50  0000 L CNN
F 2 "Resistor_SMD:R_0805_2012Metric_Pad1.15x1.40mm_HandSolder" V 8280 1800 50  0001 C CNN
F 3 "~" H 8350 1800 50  0001 C CNN
	1    8350 1800
	1    0    0    -1  
$EndComp
$Comp
L Device:R R17
U 1 1 606D25C9
P 8350 5100
F 0 "R17" H 8420 5146 50  0000 L CNN
F 1 "820R" H 8420 5055 50  0000 L CNN
F 2 "Resistor_SMD:R_0805_2012Metric_Pad1.15x1.40mm_HandSolder" V 8280 5100 50  0001 C CNN
F 3 "~" H 8350 5100 50  0001 C CNN
	1    8350 5100
	1    0    0    -1  
$EndComp
Wire Wire Line
	8350 4800 8350 4900
$Comp
L power:+12V #PWR024
U 1 1 606D34F5
P 8350 1400
F 0 "#PWR024" H 8350 1250 50  0001 C CNN
F 1 "+12V" H 8365 1573 50  0000 C CNN
F 2 "" H 8350 1400 50  0001 C CNN
F 3 "" H 8350 1400 50  0001 C CNN
	1    8350 1400
	1    0    0    -1  
$EndComp
$Comp
L power:-12V #PWR025
U 1 1 606D3C33
P 8350 5750
F 0 "#PWR025" H 8350 5850 50  0001 C CNN
F 1 "-12V" H 8365 5923 50  0000 C CNN
F 2 "" H 8350 5750 50  0001 C CNN
F 3 "" H 8350 5750 50  0001 C CNN
	1    8350 5750
	-1   0    0    1   
$EndComp
$Comp
L Device:R R12
U 1 1 606D67FC
P 7800 2650
F 0 "R12" V 7593 2650 50  0000 C CNN
F 1 "10R" V 7684 2650 50  0000 C CNN
F 2 "Resistor_SMD:R_0805_2012Metric_Pad1.15x1.40mm_HandSolder" V 7730 2650 50  0001 C CNN
F 3 "~" H 7800 2650 50  0001 C CNN
	1    7800 2650
	0    1    1    0   
$EndComp
$Comp
L Device:R R13
U 1 1 606D6E30
P 7800 4600
F 0 "R13" V 7593 4600 50  0000 C CNN
F 1 "10R" V 7684 4600 50  0000 C CNN
F 2 "Resistor_SMD:R_0805_2012Metric_Pad1.15x1.40mm_HandSolder" V 7730 4600 50  0001 C CNN
F 3 "~" H 7800 4600 50  0001 C CNN
	1    7800 4600
	0    1    1    0   
$EndComp
Wire Wire Line
	7950 2650 8050 2650
Wire Wire Line
	7950 4600 8050 4600
$Comp
L Device:R R9
U 1 1 606D7BAB
P 6500 3100
F 0 "R9" H 6570 3146 50  0000 L CNN
F 1 "1.6k" H 6570 3055 50  0000 L CNN
F 2 "Resistor_SMD:R_0805_2012Metric_Pad1.15x1.40mm_HandSolder" V 6430 3100 50  0001 C CNN
F 3 "~" H 6500 3100 50  0001 C CNN
	1    6500 3100
	1    0    0    -1  
$EndComp
$Comp
L Device:R R10
U 1 1 606D8238
P 6500 4150
F 0 "R10" H 6570 4196 50  0000 L CNN
F 1 "1.6k" H 6570 4105 50  0000 L CNN
F 2 "Resistor_SMD:R_0805_2012Metric_Pad1.15x1.40mm_HandSolder" V 6430 4150 50  0001 C CNN
F 3 "~" H 6500 4150 50  0001 C CNN
	1    6500 4150
	1    0    0    -1  
$EndComp
$Comp
L power:+12V #PWR018
U 1 1 606D8E0B
P 6500 3900
F 0 "#PWR018" H 6500 3750 50  0001 C CNN
F 1 "+12V" H 6515 4073 50  0000 C CNN
F 2 "" H 6500 3900 50  0001 C CNN
F 3 "" H 6500 3900 50  0001 C CNN
	1    6500 3900
	1    0    0    -1  
$EndComp
$Comp
L power:-12V #PWR017
U 1 1 606DA238
P 6500 3350
F 0 "#PWR017" H 6500 3450 50  0001 C CNN
F 1 "-12V" H 6515 3523 50  0000 C CNN
F 2 "" H 6500 3350 50  0001 C CNN
F 3 "" H 6500 3350 50  0001 C CNN
	1    6500 3350
	-1   0    0    1   
$EndComp
Wire Wire Line
	6500 3350 6500 3250
Wire Wire Line
	6500 3900 6500 4000
Wire Wire Line
	6500 4300 6500 4350
Wire Wire Line
	6500 2950 6500 2900
Connection ~ 6500 2900
Wire Wire Line
	6500 2900 6500 2850
Connection ~ 6500 4350
Wire Wire Line
	6500 4350 6500 4400
Connection ~ 8350 3650
Wire Wire Line
	8350 3650 8350 4000
Wire Wire Line
	8350 3250 8350 3650
Wire Wire Line
	6500 2900 6800 2900
Wire Wire Line
	7650 4600 7450 4600
Wire Wire Line
	6500 4350 6800 4350
Wire Wire Line
	7450 2650 7650 2650
Wire Wire Line
	6800 2900 7450 4600
Wire Wire Line
	6800 4350 7450 2650
$Comp
L Device:R R8
U 1 1 606E8F83
P 6500 1800
F 0 "R8" H 6570 1846 50  0000 L CNN
F 1 "680R" H 6570 1755 50  0000 L CNN
F 2 "Resistor_SMD:R_0805_2012Metric_Pad1.15x1.40mm_HandSolder" V 6430 1800 50  0001 C CNN
F 3 "~" H 6500 1800 50  0001 C CNN
	1    6500 1800
	1    0    0    -1  
$EndComp
$Comp
L Device:R R11
U 1 1 606E955C
P 6500 5100
F 0 "R11" H 6570 5146 50  0000 L CNN
F 1 "680R" H 6570 5055 50  0000 L CNN
F 2 "Resistor_SMD:R_0805_2012Metric_Pad1.15x1.40mm_HandSolder" V 6430 5100 50  0001 C CNN
F 3 "~" H 6500 5100 50  0001 C CNN
	1    6500 5100
	1    0    0    -1  
$EndComp
$Comp
L power:-12V #PWR019
U 1 1 606F14A8
P 6500 5850
F 0 "#PWR019" H 6500 5950 50  0001 C CNN
F 1 "-12V" H 6515 6023 50  0000 C CNN
F 2 "" H 6500 5850 50  0001 C CNN
F 3 "" H 6500 5850 50  0001 C CNN
	1    6500 5850
	-1   0    0    1   
$EndComp
$Comp
L power:+12V #PWR016
U 1 1 606F2E65
P 6500 1400
F 0 "#PWR016" H 6500 1250 50  0001 C CNN
F 1 "+12V" H 6515 1573 50  0000 C CNN
F 2 "" H 6500 1400 50  0001 C CNN
F 3 "" H 6500 1400 50  0001 C CNN
	1    6500 1400
	1    0    0    -1  
$EndComp
Wire Wire Line
	6500 5250 6500 5350
$Comp
L Device:R R6
U 1 1 606F637D
P 5900 2650
F 0 "R6" V 5693 2650 50  0000 C CNN
F 1 "10R" V 5784 2650 50  0000 C CNN
F 2 "Resistor_SMD:R_0805_2012Metric_Pad1.15x1.40mm_HandSolder" V 5830 2650 50  0001 C CNN
F 3 "~" H 5900 2650 50  0001 C CNN
	1    5900 2650
	0    1    1    0   
$EndComp
$Comp
L Device:R R7
U 1 1 606F6D06
P 5900 4600
F 0 "R7" V 5693 4600 50  0000 C CNN
F 1 "10R" V 5784 4600 50  0000 C CNN
F 2 "Resistor_SMD:R_0805_2012Metric_Pad1.15x1.40mm_HandSolder" V 5830 4600 50  0001 C CNN
F 3 "~" H 5900 4600 50  0001 C CNN
	1    5900 4600
	0    1    1    0   
$EndComp
Wire Wire Line
	6050 2650 6200 2650
Wire Wire Line
	6050 4600 6200 4600
Wire Wire Line
	5750 4600 5550 4600
Wire Wire Line
	5550 4600 5550 3650
Wire Wire Line
	5550 2650 5750 2650
Connection ~ 5550 3650
Wire Wire Line
	5550 3650 5550 2650
$Comp
L Device:C C16
U 1 1 607083BD
P 9000 2400
F 0 "C16" H 9115 2446 50  0000 L CNN
F 1 "4.7n" H 9115 2355 50  0000 L CNN
F 2 "Capacitor_SMD:C_0805_2012Metric_Pad1.15x1.40mm_HandSolder" H 9038 2250 50  0001 C CNN
F 3 "~" H 9000 2400 50  0001 C CNN
	1    9000 2400
	1    0    0    -1  
$EndComp
$Comp
L Device:C C15
U 1 1 60708E69
P 8850 5150
F 0 "C15" H 8965 5196 50  0000 L CNN
F 1 "4.7n" H 8965 5105 50  0000 L CNN
F 2 "Capacitor_SMD:C_0805_2012Metric_Pad1.15x1.40mm_HandSolder" H 8888 5000 50  0001 C CNN
F 3 "~" H 8850 5150 50  0001 C CNN
	1    8850 5150
	1    0    0    -1  
$EndComp
Wire Wire Line
	8850 5000 8850 4900
Wire Wire Line
	8850 4900 8350 4900
Connection ~ 8350 4900
Wire Wire Line
	8350 4900 8350 4950
Wire Wire Line
	8350 2200 9000 2200
Wire Wire Line
	9000 2550 9000 2650
$Comp
L power:GND #PWR026
U 1 1 60712274
P 8850 5750
F 0 "#PWR026" H 8850 5500 50  0001 C CNN
F 1 "GND" H 8855 5577 50  0000 C CNN
F 2 "" H 8850 5750 50  0001 C CNN
F 3 "" H 8850 5750 50  0001 C CNN
	1    8850 5750
	1    0    0    -1  
$EndComp
$Comp
L power:GND #PWR027
U 1 1 6071275F
P 9000 2650
F 0 "#PWR027" H 9000 2400 50  0001 C CNN
F 1 "GND" H 9005 2477 50  0000 C CNN
F 2 "" H 9000 2650 50  0001 C CNN
F 3 "" H 9000 2650 50  0001 C CNN
	1    9000 2650
	1    0    0    -1  
$EndComp
$Comp
L Device:C C11
U 1 1 60716EEA
P 6950 5200
F 0 "C11" H 7065 5246 50  0000 L CNN
F 1 "4.7n" H 7065 5155 50  0000 L CNN
F 2 "Capacitor_SMD:C_0805_2012Metric_Pad1.15x1.40mm_HandSolder" H 6988 5050 50  0001 C CNN
F 3 "~" H 6950 5200 50  0001 C CNN
	1    6950 5200
	1    0    0    -1  
$EndComp
$Comp
L Device:C C12
U 1 1 607194FD
P 7100 2400
F 0 "C12" H 7215 2446 50  0000 L CNN
F 1 "4.7n" H 7215 2355 50  0000 L CNN
F 2 "Capacitor_SMD:C_0805_2012Metric_Pad1.15x1.40mm_HandSolder" H 7138 2250 50  0001 C CNN
F 3 "~" H 7100 2400 50  0001 C CNN
	1    7100 2400
	1    0    0    -1  
$EndComp
Wire Wire Line
	7100 2250 7100 2200
Wire Wire Line
	7100 2550 7100 2650
Wire Wire Line
	6950 5350 6950 5850
Wire Wire Line
	6950 5050 6950 4900
$Comp
L power:GND #PWR020
U 1 1 60722EDA
P 6950 5850
F 0 "#PWR020" H 6950 5600 50  0001 C CNN
F 1 "GND" H 6955 5677 50  0000 C CNN
F 2 "" H 6950 5850 50  0001 C CNN
F 3 "" H 6950 5850 50  0001 C CNN
	1    6950 5850
	1    0    0    -1  
$EndComp
$Comp
L power:GND #PWR021
U 1 1 60723C11
P 7100 2650
F 0 "#PWR021" H 7100 2400 50  0001 C CNN
F 1 "GND" H 7105 2477 50  0000 C CNN
F 2 "" H 7100 2650 50  0001 C CNN
F 3 "" H 7100 2650 50  0001 C CNN
	1    7100 2650
	1    0    0    -1  
$EndComp
$Comp
L Device:R R5
U 1 1 6072B8D8
P 4650 3350
F 0 "R5" H 4720 3396 50  0000 L CNN
F 1 "330R" H 4720 3305 50  0000 L CNN
F 2 "Resistor_SMD:R_0805_2012Metric_Pad1.15x1.40mm_HandSolder" V 4580 3350 50  0001 C CNN
F 3 "~" H 4650 3350 50  0001 C CNN
	1    4650 3350
	1    0    0    -1  
$EndComp
Wire Wire Line
	4650 3500 4650 3650
Connection ~ 4650 3650
Wire Wire Line
	4650 3650 4650 3950
$Comp
L Device:C C6
U 1 1 6072F6E4
P 5050 3350
F 0 "C6" H 5165 3396 50  0000 L CNN
F 1 "330p" H 5165 3305 50  0000 L CNN
F 2 "Capacitor_SMD:C_0805_2012Metric_Pad1.15x1.40mm_HandSolder" H 5088 3200 50  0001 C CNN
F 3 "~" H 5050 3350 50  0001 C CNN
	1    5050 3350
	1    0    0    -1  
$EndComp
Wire Wire Line
	5050 3200 5050 3050
Wire Wire Line
	5050 3500 5050 3650
Connection ~ 5050 3650
Wire Wire Line
	5050 3650 5550 3650
Wire Wire Line
	4650 3650 5050 3650
Wire Wire Line
	4650 3000 4650 3050
Wire Wire Line
	4650 3050 5050 3050
Connection ~ 4650 3050
Wire Wire Line
	4650 3050 4650 3200
Wire Wire Line
	4650 2600 4650 1750
$Comp
L power:+12V #PWR09
U 1 1 60739DAB
P 4650 1500
F 0 "#PWR09" H 4650 1350 50  0001 C CNN
F 1 "+12V" H 4665 1673 50  0000 C CNN
F 2 "" H 4650 1500 50  0001 C CNN
F 3 "" H 4650 1500 50  0001 C CNN
	1    4650 1500
	1    0    0    -1  
$EndComp
$Comp
L Device:D D2
U 1 1 6073D8B2
P 3300 2500
F 0 "D2" V 3254 2580 50  0000 L CNN
F 1 "BAS416" V 3345 2580 50  0000 L CNN
F 2 "Diode_SMD:D_SOD-323_HandSoldering" H 3300 2500 50  0001 C CNN
F 3 "~" H 3300 2500 50  0001 C CNN
	1    3300 2500
	0    1    1    0   
$EndComp
Wire Wire Line
	4350 4150 4150 4150
$Comp
L Device:D D1
U 1 1 60742C1C
P 3300 2050
F 0 "D1" V 3254 2130 50  0000 L CNN
F 1 "BAQ133" V 3345 2130 50  0000 L CNN
F 2 "Diode_SMD:D_MiniMELF" H 3300 2050 50  0001 C CNN
F 3 "~" H 3300 2050 50  0001 C CNN
	1    3300 2050
	0    1    1    0   
$EndComp
Wire Wire Line
	4350 2800 3300 2800
Wire Wire Line
	3300 1900 3300 1550
Wire Wire Line
	3300 2200 3300 2350
Wire Wire Line
	3300 2650 3300 2800
Connection ~ 3300 2800
$Comp
L Device:D D4
U 1 1 6077FBBD
P 3300 3750
F 0 "D4" V 3254 3830 50  0000 L CNN
F 1 "BAQ133" V 3345 3830 50  0000 L CNN
F 2 "Diode_SMD:D_MiniMELF" H 3300 3750 50  0001 C CNN
F 3 "~" H 3300 3750 50  0001 C CNN
	1    3300 3750
	0    1    1    0   
$EndComp
$Comp
L Device:D D3
U 1 1 6077FBC3
P 3300 3300
F 0 "D3" V 3254 3380 50  0000 L CNN
F 1 "BAS416" V 3345 3380 50  0000 L CNN
F 2 "Diode_SMD:D_SOD-323_HandSoldering" H 3300 3300 50  0001 C CNN
F 3 "~" H 3300 3300 50  0001 C CNN
	1    3300 3300
	0    1    1    0   
$EndComp
Wire Wire Line
	3300 3150 3300 2800
Wire Wire Line
	3300 3450 3300 3600
Wire Wire Line
	3300 1550 3800 1550
Wire Wire Line
	3800 1900 3800 2000
Wire Wire Line
	3800 1550 3800 1600
Connection ~ 3800 1550
Wire Wire Line
	3800 1450 3800 1550
Wire Wire Line
	3800 1000 3800 1050
$Comp
L power:+12V #PWR04
U 1 1 6074B1DF
P 3800 1000
F 0 "#PWR04" H 3800 850 50  0001 C CNN
F 1 "+12V" H 3815 1173 50  0000 C CNN
F 2 "" H 3800 1000 50  0001 C CNN
F 3 "" H 3800 1000 50  0001 C CNN
	1    3800 1000
	1    0    0    -1  
$EndComp
$Comp
L Device:R R3
U 1 1 6074AD38
P 3800 1300
F 0 "R3" H 3870 1346 50  0000 L CNN
F 1 "4.7k" H 3870 1255 50  0000 L CNN
F 2 "Resistor_SMD:R_0805_2012Metric_Pad1.15x1.40mm_HandSolder" V 3730 1300 50  0001 C CNN
F 3 "~" H 3800 1300 50  0001 C CNN
	1    3800 1300
	1    0    0    -1  
$EndComp
$Comp
L Device:D D5
U 1 1 6074410F
P 3800 1750
F 0 "D5" V 3846 1670 50  0000 R CNN
F 1 "LL4148-GS18" V 3755 1670 50  0000 R CNN
F 2 "Diode_SMD:D_MiniMELF" H 3800 1750 50  0001 C CNN
F 3 "~" H 3800 1750 50  0001 C CNN
	1    3800 1750
	0    -1   -1   0   
$EndComp
$Comp
L Device:D D6
U 1 1 607439B7
P 3800 2150
F 0 "D6" V 3846 2070 50  0000 R CNN
F 1 "LL4148-GS18" V 3755 2070 50  0000 R CNN
F 2 "Diode_SMD:D_MiniMELF" H 3800 2150 50  0001 C CNN
F 3 "~" H 3800 2150 50  0001 C CNN
	1    3800 2150
	0    -1   -1   0   
$EndComp
Wire Wire Line
	3800 3650 3800 3750
$Comp
L Device:D D7
U 1 1 60796154
P 3800 3500
F 0 "D7" V 3846 3420 50  0000 R CNN
F 1 "LL4148-GS18" V 3755 3420 50  0000 R CNN
F 2 "Diode_SMD:D_MiniMELF" H 3800 3500 50  0001 C CNN
F 3 "~" H 3800 3500 50  0001 C CNN
	1    3800 3500
	0    -1   -1   0   
$EndComp
$Comp
L Device:D D8
U 1 1 6079615A
P 3800 3900
F 0 "D8" V 3846 3820 50  0000 R CNN
F 1 "LL4148-GS18" V 3755 3820 50  0000 R CNN
F 2 "Diode_SMD:D_MiniMELF" H 3800 3900 50  0001 C CNN
F 3 "~" H 3800 3900 50  0001 C CNN
	1    3800 3900
	0    -1   -1   0   
$EndComp
$Comp
L Device:R R4
U 1 1 6079DFE6
P 3800 4350
F 0 "R4" H 3870 4396 50  0000 L CNN
F 1 "4.7k" H 3870 4305 50  0000 L CNN
F 2 "Resistor_SMD:R_0805_2012Metric_Pad1.15x1.40mm_HandSolder" V 3730 4350 50  0001 C CNN
F 3 "~" H 3800 4350 50  0001 C CNN
	1    3800 4350
	1    0    0    -1  
$EndComp
Wire Wire Line
	3800 4050 3800 4150
Wire Wire Line
	3300 4150 3800 4150
Wire Wire Line
	3300 3900 3300 4150
Connection ~ 3800 4150
Wire Wire Line
	3800 4150 3800 4200
Wire Wire Line
	3800 4500 3800 4600
$Comp
L power:-12V #PWR07
U 1 1 607A9E40
P 3800 5200
F 0 "#PWR07" H 3800 5300 50  0001 C CNN
F 1 "-12V" H 3815 5373 50  0000 C CNN
F 2 "" H 3800 5200 50  0001 C CNN
F 3 "" H 3800 5200 50  0001 C CNN
	1    3800 5200
	-1   0    0    1   
$EndComp
Wire Wire Line
	3300 2800 2950 2800
$Comp
L Device:R R2
U 1 1 607B38BD
P 2700 2800
F 0 "R2" V 2493 2800 50  0000 C CNN
F 1 "10k" V 2584 2800 50  0000 C CNN
F 2 "Resistor_SMD:R_0805_2012Metric_Pad1.15x1.40mm_HandSolder" V 2630 2800 50  0001 C CNN
F 3 "~" H 2700 2800 50  0001 C CNN
	1    2700 2800
	0    1    1    0   
$EndComp
$Comp
L Device:C C1
U 1 1 607B3EE4
P 2700 2400
F 0 "C1" V 2448 2400 50  0000 C CNN
F 1 "1n" V 2539 2400 50  0000 C CNN
F 2 "Capacitor_SMD:C_0805_2012Metric_Pad1.15x1.40mm_HandSolder" H 2738 2250 50  0001 C CNN
F 3 "~" H 2700 2400 50  0001 C CNN
	1    2700 2400
	0    1    1    0   
$EndComp
Wire Wire Line
	2850 2400 2950 2400
Wire Wire Line
	2950 2400 2950 2800
Wire Wire Line
	2950 2800 2850 2800
Connection ~ 2950 2800
Wire Wire Line
	2550 2400 2400 2400
Wire Wire Line
	2400 2400 2400 2800
Wire Wire Line
	2400 2800 2550 2800
Connection ~ 2400 2800
$Comp
L Device:R R1
U 1 1 607C0C29
P 2150 3050
F 0 "R1" H 2220 3096 50  0000 L CNN
F 1 "1M" H 2220 3005 50  0000 L CNN
F 2 "Resistor_SMD:R_0805_2012Metric_Pad1.15x1.40mm_HandSolder" V 2080 3050 50  0001 C CNN
F 3 "~" H 2150 3050 50  0001 C CNN
	1    2150 3050
	1    0    0    -1  
$EndComp
Wire Wire Line
	2150 2800 2150 2900
Wire Wire Line
	2150 2800 2400 2800
Wire Wire Line
	2150 3200 2150 3350
$Comp
L power:GND #PWR02
U 1 1 607C7E8C
P 2150 3350
F 0 "#PWR02" H 2150 3100 50  0001 C CNN
F 1 "GND" H 2155 3177 50  0000 C CNN
F 2 "" H 2150 3350 50  0001 C CNN
F 3 "" H 2150 3350 50  0001 C CNN
	1    2150 3350
	1    0    0    -1  
$EndComp
Connection ~ 2150 2800
Wire Wire Line
	4650 4950 4650 5200
Wire Wire Line
	4500 5350 4150 5350
Wire Wire Line
	10050 1000 10050 800 
Wire Wire Line
	10250 1150 9750 1150
Wire Wire Line
	9750 1150 9750 1250
Wire Wire Line
	10250 1300 10050 1300
Wire Wire Line
	10050 1300 10050 1750
$Comp
L power:GND #PWR029
U 1 1 60840243
P 9750 1250
F 0 "#PWR029" H 9750 1000 50  0001 C CNN
F 1 "GND" H 9755 1077 50  0000 C CNN
F 2 "" H 9750 1250 50  0001 C CNN
F 3 "" H 9750 1250 50  0001 C CNN
	1    9750 1250
	1    0    0    -1  
$EndComp
$Comp
L power:-12V #PWR033
U 1 1 608405D6
P 10050 1900
F 0 "#PWR033" H 10050 2000 50  0001 C CNN
F 1 "-12V" H 10065 2073 50  0000 C CNN
F 2 "" H 10050 1900 50  0001 C CNN
F 3 "" H 10050 1900 50  0001 C CNN
	1    10050 1900
	-1   0    0    1   
$EndComp
$Comp
L power:+12V #PWR032
U 1 1 60840B43
P 10050 800
F 0 "#PWR032" H 10050 650 50  0001 C CNN
F 1 "+12V" H 10065 973 50  0000 C CNN
F 2 "" H 10050 800 50  0001 C CNN
F 3 "" H 10050 800 50  0001 C CNN
	1    10050 800 
	1    0    0    -1  
$EndComp
$Comp
L power:PWR_FLAG #FLG02
U 1 1 608418D5
P 10400 1700
F 0 "#FLG02" H 10400 1775 50  0001 C CNN
F 1 "PWR_FLAG" H 10400 1873 50  0000 C CNN
F 2 "" H 10400 1700 50  0001 C CNN
F 3 "~" H 10400 1700 50  0001 C CNN
	1    10400 1700
	1    0    0    -1  
$EndComp
Wire Wire Line
	10050 1750 10400 1750
Wire Wire Line
	10400 1750 10400 1700
Connection ~ 10050 1750
Wire Wire Line
	10050 1750 10050 1900
$Comp
L Device:C C20
U 1 1 606E3160
P 10950 2850
F 0 "C20" H 11065 2896 50  0000 L CNN
F 1 "22u" H 11065 2805 50  0000 L CNN
F 2 "Capacitor_SMD:C_1210_3225Metric_Pad1.33x2.70mm_HandSolder" H 10988 2700 50  0001 C CNN
F 3 "~" H 10950 2850 50  0001 C CNN
	1    10950 2850
	1    0    0    -1  
$EndComp
$Comp
L Device:C C14
U 1 1 606E381B
P 8050 1900
F 0 "C14" H 8165 1946 50  0000 L CNN
F 1 "C" H 8165 1855 50  0000 L CNN
F 2 "Capacitor_SMD:C_0805_2012Metric_Pad1.15x1.40mm_HandSolder" H 8088 1750 50  0001 C CNN
F 3 "~" H 8050 1900 50  0001 C CNN
	1    8050 1900
	1    0    0    -1  
$EndComp
$Comp
L Device:C C18
U 1 1 606E438E
P 10150 2850
F 0 "C18" H 10265 2896 50  0000 L CNN
F 1 "22u" H 10265 2805 50  0000 L CNN
F 2 "Capacitor_SMD:C_1210_3225Metric_Pad1.33x2.70mm_HandSolder" H 10188 2700 50  0001 C CNN
F 3 "~" H 10150 2850 50  0001 C CNN
	1    10150 2850
	1    0    0    -1  
$EndComp
$Comp
L power:+12V #PWR034
U 1 1 60704F64
P 10750 2450
F 0 "#PWR034" H 10750 2300 50  0001 C CNN
F 1 "+12V" H 10765 2623 50  0000 C CNN
F 2 "" H 10750 2450 50  0001 C CNN
F 3 "" H 10750 2450 50  0001 C CNN
	1    10750 2450
	1    0    0    -1  
$EndComp
$Comp
L power:-12V #PWR031
U 1 1 60709DC1
P 9950 3200
F 0 "#PWR031" H 9950 3300 50  0001 C CNN
F 1 "-12V" H 9965 3373 50  0000 C CNN
F 2 "" H 9950 3200 50  0001 C CNN
F 3 "" H 9950 3200 50  0001 C CNN
	1    9950 3200
	-1   0    0    1   
$EndComp
Wire Wire Line
	9950 3050 9950 3200
Wire Wire Line
	9750 3000 9750 3050
Wire Wire Line
	10150 3050 10150 3000
Wire Wire Line
	10150 2700 10150 2600
Wire Wire Line
	9750 2600 9750 2700
Wire Wire Line
	10550 3000 10550 3100
Wire Wire Line
	10950 3100 10950 3000
Wire Wire Line
	10750 2450 10750 2600
$Comp
L Device:CP C19
U 1 1 6073626D
P 10550 2850
F 0 "C19" H 10668 2896 50  0000 L CNN
F 1 "100u" H 10668 2805 50  0000 L CNN
F 2 "Capacitor_SMD:CP_Elec_6.3x5.8" H 10588 2700 50  0001 C CNN
F 3 "~" H 10550 2850 50  0001 C CNN
	1    10550 2850
	1    0    0    -1  
$EndComp
$Comp
L Device:CP C17
U 1 1 60736E85
P 9750 2850
F 0 "C17" H 9868 2896 50  0000 L CNN
F 1 "100u" H 9868 2805 50  0000 L CNN
F 2 "Capacitor_SMD:CP_Elec_6.3x5.8" H 9788 2700 50  0001 C CNN
F 3 "~" H 9750 2850 50  0001 C CNN
	1    9750 2850
	1    0    0    -1  
$EndComp
Wire Wire Line
	10550 2600 10550 2700
Wire Wire Line
	10950 2600 10950 2700
Wire Wire Line
	10550 2600 10750 2600
Connection ~ 10750 2600
Wire Wire Line
	10750 2600 10950 2600
Wire Wire Line
	9750 3050 9950 3050
Connection ~ 9950 3050
Wire Wire Line
	9950 3050 10150 3050
Wire Wire Line
	8350 1950 8350 2200
Wire Wire Line
	8350 1400 8350 1500
Wire Wire Line
	8050 1750 8050 1500
Wire Wire Line
	8050 1500 8350 1500
Connection ~ 8350 1500
Wire Wire Line
	8350 1500 8350 1650
Wire Wire Line
	8050 2050 8050 2150
$Comp
L power:GND #PWR023
U 1 1 60800F14
P 8050 2150
F 0 "#PWR023" H 8050 1900 50  0001 C CNN
F 1 "GND" H 8055 1977 50  0000 C CNN
F 2 "" H 8050 2150 50  0001 C CNN
F 3 "" H 8050 2150 50  0001 C CNN
	1    8050 2150
	1    0    0    -1  
$EndComp
$Comp
L Device:C C8
U 1 1 6081E077
P 6150 3450
F 0 "C8" H 6265 3496 50  0000 L CNN
F 1 "C" H 6265 3405 50  0000 L CNN
F 2 "Capacitor_SMD:C_0805_2012Metric_Pad1.15x1.40mm_HandSolder" H 6188 3300 50  0001 C CNN
F 3 "~" H 6150 3450 50  0001 C CNN
	1    6150 3450
	1    0    0    -1  
$EndComp
$Comp
L Device:C C9
U 1 1 6081F91A
P 6150 3850
F 0 "C9" H 6265 3896 50  0000 L CNN
F 1 "C" H 6265 3805 50  0000 L CNN
F 2 "Capacitor_SMD:C_0805_2012Metric_Pad1.15x1.40mm_HandSolder" H 6188 3700 50  0001 C CNN
F 3 "~" H 6150 3850 50  0001 C CNN
	1    6150 3850
	1    0    0    -1  
$EndComp
Wire Wire Line
	6150 3600 6150 3650
Wire Wire Line
	6150 3650 5900 3650
Connection ~ 6150 3650
Wire Wire Line
	6150 3650 6150 3700
$Comp
L power:GND #PWR013
U 1 1 608398E3
P 5900 3800
F 0 "#PWR013" H 5900 3550 50  0001 C CNN
F 1 "GND" H 5905 3627 50  0000 C CNN
F 2 "" H 5900 3800 50  0001 C CNN
F 3 "" H 5900 3800 50  0001 C CNN
	1    5900 3800
	1    0    0    -1  
$EndComp
$Comp
L Device:C C10
U 1 1 6083C1CE
P 6200 5600
F 0 "C10" H 6315 5646 50  0000 L CNN
F 1 "C" H 6315 5555 50  0000 L CNN
F 2 "Capacitor_SMD:C_0805_2012Metric_Pad1.15x1.40mm_HandSolder" H 6238 5450 50  0001 C CNN
F 3 "~" H 6200 5600 50  0001 C CNN
	1    6200 5600
	1    0    0    -1  
$EndComp
$Comp
L power:-12V #PWR010
U 1 1 60843BC7
P 4650 6200
F 0 "#PWR010" H 4650 6300 50  0001 C CNN
F 1 "-12V" H 4665 6373 50  0000 C CNN
F 2 "" H 4650 6200 50  0001 C CNN
F 3 "" H 4650 6200 50  0001 C CNN
	1    4650 6200
	-1   0    0    1   
$EndComp
Wire Wire Line
	4650 5500 4650 5600
Wire Wire Line
	6200 5350 6500 5350
Connection ~ 6500 5350
Wire Wire Line
	6500 5350 6500 5850
$Comp
L Device:C C5
U 1 1 6088C0A8
P 4950 5900
F 0 "C5" H 5065 5946 50  0000 L CNN
F 1 "C" H 5065 5855 50  0000 L CNN
F 2 "Capacitor_SMD:C_0805_2012Metric_Pad1.15x1.40mm_HandSolder" H 4988 5750 50  0001 C CNN
F 3 "~" H 4950 5900 50  0001 C CNN
	1    4950 5900
	1    0    0    -1  
$EndComp
Wire Wire Line
	4950 5750 4950 5600
Wire Wire Line
	4950 5600 4650 5600
Connection ~ 4650 5600
Wire Wire Line
	4650 5600 4650 6200
Wire Wire Line
	4950 6050 4950 6200
$Comp
L power:GND #PWR012
U 1 1 6089B120
P 4950 6200
F 0 "#PWR012" H 4950 5950 50  0001 C CNN
F 1 "GND" H 4955 6027 50  0000 C CNN
F 2 "" H 4950 6200 50  0001 C CNN
F 3 "" H 4950 6200 50  0001 C CNN
	1    4950 6200
	1    0    0    -1  
$EndComp
$Comp
L Device:C C4
U 1 1 608A7CED
P 4950 2100
F 0 "C4" H 5065 2146 50  0000 L CNN
F 1 "C" H 5065 2055 50  0000 L CNN
F 2 "Capacitor_SMD:C_0805_2012Metric_Pad1.15x1.40mm_HandSolder" H 4988 1950 50  0001 C CNN
F 3 "~" H 4950 2100 50  0001 C CNN
	1    4950 2100
	1    0    0    -1  
$EndComp
Wire Wire Line
	4950 1950 4950 1750
Wire Wire Line
	4950 1750 4650 1750
Connection ~ 4650 1750
Wire Wire Line
	4650 1750 4650 1500
Wire Wire Line
	6500 1950 6500 2200
Wire Wire Line
	6500 2200 7100 2200
Connection ~ 6500 2200
Wire Wire Line
	6500 2200 6500 2450
Wire Wire Line
	6200 5350 6200 5450
Wire Wire Line
	8350 5250 8350 5300
$Comp
L Device:C C13
U 1 1 609835DD
P 7950 5500
F 0 "C13" H 8065 5546 50  0000 L CNN
F 1 "C" H 8065 5455 50  0000 L CNN
F 2 "Capacitor_SMD:C_0805_2012Metric_Pad1.15x1.40mm_HandSolder" H 7988 5350 50  0001 C CNN
F 3 "~" H 7950 5500 50  0001 C CNN
	1    7950 5500
	1    0    0    -1  
$EndComp
Wire Wire Line
	7950 5350 7950 5300
Wire Wire Line
	7950 5300 8350 5300
Connection ~ 8350 5300
Wire Wire Line
	8350 5300 8350 5750
Connection ~ 8350 2200
Wire Wire Line
	8350 2200 8350 2450
Wire Wire Line
	9000 2200 9000 2250
Wire Wire Line
	6150 3300 6150 3250
Wire Wire Line
	6150 3250 6500 3250
Connection ~ 6500 3250
Wire Wire Line
	6150 4000 6500 4000
Connection ~ 6500 4000
Text Notes 800  6250 0    50   ~ 0
szpilka na wejscie najlepiej, dobrze wchodzaca w goldin żeńśki
Wire Wire Line
	6150 1500 6150 1650
$Comp
L power:GND #PWR014
U 1 1 607FF621
P 6150 2100
F 0 "#PWR014" H 6150 1850 50  0001 C CNN
F 1 "GND" H 6155 1927 50  0000 C CNN
F 2 "" H 6150 2100 50  0001 C CNN
F 3 "" H 6150 2100 50  0001 C CNN
	1    6150 2100
	1    0    0    -1  
$EndComp
Wire Wire Line
	6150 1950 6150 2100
Wire Wire Line
	6500 1500 6500 1650
Wire Wire Line
	6500 1400 6500 1500
Connection ~ 6500 1500
Wire Wire Line
	6150 1500 6500 1500
$Comp
L Device:C C7
U 1 1 606E4A46
P 6150 1800
F 0 "C7" H 6265 1846 50  0000 L CNN
F 1 "C" H 6265 1755 50  0000 L CNN
F 2 "Capacitor_SMD:C_0805_2012Metric_Pad1.15x1.40mm_HandSolder" H 6188 1650 50  0001 C CNN
F 3 "~" H 6150 1800 50  0001 C CNN
	1    6150 1800
	1    0    0    -1  
$EndComp
Wire Wire Line
	6500 4800 6500 4900
Wire Wire Line
	6500 4900 6950 4900
Connection ~ 6500 4900
Wire Wire Line
	6500 4900 6500 4950
Text Notes 800  6350 0    50   ~ 0
na mase dać szpilke co sobie moge dokrecic srubka \n
$Comp
L Device:C C2
U 1 1 60AA5362
P 3400 4900
F 0 "C2" H 3515 4946 50  0000 L CNN
F 1 "C" H 3515 4855 50  0000 L CNN
F 2 "Capacitor_SMD:C_0805_2012Metric_Pad1.15x1.40mm_HandSolder" H 3438 4750 50  0001 C CNN
F 3 "~" H 3400 4900 50  0001 C CNN
	1    3400 4900
	1    0    0    -1  
$EndComp
Wire Wire Line
	3400 4750 3400 4600
Wire Wire Line
	3400 5050 3400 5200
$Comp
L power:GND #PWR03
U 1 1 60AA536B
P 3400 5200
F 0 "#PWR03" H 3400 4950 50  0001 C CNN
F 1 "GND" H 3405 5027 50  0000 C CNN
F 2 "" H 3400 5200 50  0001 C CNN
F 3 "" H 3400 5200 50  0001 C CNN
	1    3400 5200
	1    0    0    -1  
$EndComp
Wire Wire Line
	3400 4600 3800 4600
Connection ~ 3800 4600
Wire Wire Line
	3800 4600 3800 5200
$Comp
L Device:C C3
U 1 1 60AB9F9E
P 4300 1250
F 0 "C3" H 4415 1296 50  0000 L CNN
F 1 "C" H 4415 1205 50  0000 L CNN
F 2 "Capacitor_SMD:C_0805_2012Metric_Pad1.15x1.40mm_HandSolder" H 4338 1100 50  0001 C CNN
F 3 "~" H 4300 1250 50  0001 C CNN
	1    4300 1250
	1    0    0    -1  
$EndComp
Wire Wire Line
	4300 1100 4300 1050
$Comp
L power:GND #PWR08
U 1 1 60AB9FA7
P 4300 1450
F 0 "#PWR08" H 4300 1200 50  0001 C CNN
F 1 "GND" H 4305 1277 50  0000 C CNN
F 2 "" H 4300 1450 50  0001 C CNN
F 3 "" H 4300 1450 50  0001 C CNN
	1    4300 1450
	1    0    0    -1  
$EndComp
Wire Wire Line
	3800 1050 4300 1050
Connection ~ 3800 1050
Wire Wire Line
	3800 1050 3800 1150
Text Notes 800  6450 0    50   ~ 0
Kupic kilka kondensator na kilka wartosci do tych dodatkowych filtracji do tranzystorów
$Comp
L Connector:Conn_01x01_Male J1
U 1 1 60B778E4
P 1050 2800
F 0 "J1" H 1158 2981 50  0000 C CNN
F 1 "Conn_01x01_Male" H 1158 2890 50  0000 C CNN
F 2 "Connector:bare_pin" H 1050 2800 50  0001 C CNN
F 3 "~" H 1050 2800 50  0001 C CNN
	1    1050 2800
	1    0    0    -1  
$EndComp
$Comp
L Connector:Conn_01x01_Male J2
U 1 1 60B7817D
P 1050 3150
F 0 "J2" H 1158 3331 50  0000 C CNN
F 1 "Conn_01x01_Male" H 1158 3240 50  0000 C CNN
F 2 "Connector:bare_pin" H 1050 3150 50  0001 C CNN
F 3 "~" H 1050 3150 50  0001 C CNN
	1    1050 3150
	1    0    0    -1  
$EndComp
Wire Wire Line
	1250 2800 2150 2800
Wire Wire Line
	1250 3150 1450 3150
Wire Wire Line
	1450 3150 1450 3350
$Comp
L power:GND #PWR01
U 1 1 60BA6F74
P 1450 3350
F 0 "#PWR01" H 1450 3100 50  0001 C CNN
F 1 "GND" H 1455 3177 50  0000 C CNN
F 2 "" H 1450 3350 50  0001 C CNN
F 3 "" H 1450 3350 50  0001 C CNN
	1    1450 3350
	1    0    0    -1  
$EndComp
Wire Wire Line
	8850 5300 8850 5750
Wire Wire Line
	5900 3800 5900 3650
$Comp
L power:GND #PWR0102
U 1 1 60BF4ADE
P 6200 5850
F 0 "#PWR0102" H 6200 5600 50  0001 C CNN
F 1 "GND" H 6205 5677 50  0000 C CNN
F 2 "" H 6200 5850 50  0001 C CNN
F 3 "" H 6200 5850 50  0001 C CNN
	1    6200 5850
	1    0    0    -1  
$EndComp
Wire Wire Line
	6200 5850 6200 5750
$Comp
L power:GND #PWR0103
U 1 1 60C07DC4
P 7950 5750
F 0 "#PWR0103" H 7950 5500 50  0001 C CNN
F 1 "GND" H 7955 5577 50  0000 C CNN
F 2 "" H 7950 5750 50  0001 C CNN
F 3 "" H 7950 5750 50  0001 C CNN
	1    7950 5750
	1    0    0    -1  
$EndComp
Wire Wire Line
	7950 5750 7950 5650
$Comp
L power:GND #PWR0104
U 1 1 60C1B0B0
P 3800 3200
F 0 "#PWR0104" H 3800 2950 50  0001 C CNN
F 1 "GND" H 3805 3027 50  0000 C CNN
F 2 "" H 3800 3200 50  0001 C CNN
F 3 "" H 3800 3200 50  0001 C CNN
	1    3800 3200
	-1   0    0    1   
$EndComp
Wire Wire Line
	3800 3200 3800 3350
$Comp
L power:GND #PWR0105
U 1 1 60C2E3ED
P 9100 3900
F 0 "#PWR0105" H 9100 3650 50  0001 C CNN
F 1 "GND" H 9105 3727 50  0000 C CNN
F 2 "" H 9100 3900 50  0001 C CNN
F 3 "" H 9100 3900 50  0001 C CNN
	1    9100 3900
	1    0    0    -1  
$EndComp
$Comp
L power:GND #PWR0106
U 1 1 60C4103A
P 3800 2450
F 0 "#PWR0106" H 3800 2200 50  0001 C CNN
F 1 "GND" H 3805 2277 50  0000 C CNN
F 2 "" H 3800 2450 50  0001 C CNN
F 3 "" H 3800 2450 50  0001 C CNN
	1    3800 2450
	1    0    0    -1  
$EndComp
Wire Wire Line
	3800 2450 3800 2300
$Comp
L power:GND #PWR0107
U 1 1 60C53F21
P 4950 2350
F 0 "#PWR0107" H 4950 2100 50  0001 C CNN
F 1 "GND" H 4955 2177 50  0000 C CNN
F 2 "" H 4950 2350 50  0001 C CNN
F 3 "" H 4950 2350 50  0001 C CNN
	1    4950 2350
	1    0    0    -1  
$EndComp
Wire Wire Line
	4950 2350 4950 2250
Wire Wire Line
	10550 3100 10750 3100
$Comp
L power:GND #PWR0108
U 1 1 60C6F157
P 10750 3200
F 0 "#PWR0108" H 10750 2950 50  0001 C CNN
F 1 "GND" H 10755 3027 50  0000 C CNN
F 2 "" H 10750 3200 50  0001 C CNN
F 3 "" H 10750 3200 50  0001 C CNN
	1    10750 3200
	1    0    0    -1  
$EndComp
Wire Wire Line
	10750 3200 10750 3100
Connection ~ 10750 3100
Wire Wire Line
	10750 3100 10950 3100
Wire Wire Line
	9750 2600 9950 2600
$Comp
L power:GND #PWR0109
U 1 1 60C8ADD6
P 9950 2450
F 0 "#PWR0109" H 9950 2200 50  0001 C CNN
F 1 "GND" H 9955 2277 50  0000 C CNN
F 2 "" H 9950 2450 50  0001 C CNN
F 3 "" H 9950 2450 50  0001 C CNN
	1    9950 2450
	-1   0    0    1   
$EndComp
Wire Wire Line
	9950 2450 9950 2600
Connection ~ 9950 2600
Wire Wire Line
	9950 2600 10150 2600
$Comp
L power:PWR_FLAG #FLG0101
U 1 1 60CA0F17
P 9300 1000
F 0 "#FLG0101" H 9300 1075 50  0001 C CNN
F 1 "PWR_FLAG" H 9300 1173 50  0000 C CNN
F 2 "" H 9300 1000 50  0001 C CNN
F 3 "~" H 9300 1000 50  0001 C CNN
	1    9300 1000
	1    0    0    -1  
$EndComp
Wire Wire Line
	9300 1000 9300 1150
Wire Wire Line
	9300 1150 9750 1150
Connection ~ 9750 1150
$Comp
L Mechanical:MountingHole_Pad H1
U 1 1 6074F9F9
P 1100 3850
F 0 "H1" H 1200 3899 50  0000 L CNN
F 1 "MountingHole_Pad" H 1200 3808 50  0000 L CNN
F 2 "MountingHole:MountingHole_2.7mm_M2.5_Pad_Via" H 1100 3850 50  0001 C CNN
F 3 "~" H 1100 3850 50  0001 C CNN
	1    1100 3850
	1    0    0    -1  
$EndComp
Wire Wire Line
	1100 3950 1100 4100
$Comp
L power:GND #PWR05
U 1 1 607598E8
P 1100 4100
F 0 "#PWR05" H 1100 3850 50  0001 C CNN
F 1 "GND" H 1105 3927 50  0000 C CNN
F 2 "" H 1100 4100 50  0001 C CNN
F 3 "" H 1100 4100 50  0001 C CNN
	1    1100 4100
	1    0    0    -1  
$EndComp
$Comp
L Device:R R19
U 1 1 6074E5CC
P 4650 4800
F 0 "R19" H 4720 4846 50  0000 L CNN
F 1 "120" H 4720 4755 50  0000 L CNN
F 2 "Resistor_SMD:R_0805_2012Metric_Pad1.15x1.40mm_HandSolder" V 4580 4800 50  0001 C CNN
F 3 "~" H 4650 4800 50  0001 C CNN
	1    4650 4800
	1    0    0    -1  
$EndComp
Wire Wire Line
	4650 4650 4650 4350
Wire Wire Line
	4150 4150 4150 5350
$Comp
L Device:R_POT_TRIM RV1
U 1 1 60779187
P 4650 5350
F 0 "RV1" H 4580 5396 50  0000 R CNN
F 1 "PVG3G201C01R00 " H 4580 5305 50  0000 R CNN
F 2 "Potentiometer_SMD:Potentiometer_Bourns_PVG3G" H 4650 5350 50  0001 C CNN
F 3 "~" H 4650 5350 50  0001 C CNN
	1    4650 5350
	-1   0    0    -1  
$EndComp
Wire Wire Line
	4300 1450 4300 1400
$Comp
L Device:Q_NJFET_DSG Q2
U 1 1 608524FE
P 4550 4150
F 0 "Q2" H 4740 4196 50  0000 L CNN
F 1 "MMBF5459" H 4740 4105 50  0000 L CNN
F 2 "Package_TO_SOT_SMD:SOT-23" H 4750 4250 50  0001 C CNN
F 3 "~" H 4550 4150 50  0001 C CNN
	1    4550 4150
	1    0    0    -1  
$EndComp
$Comp
L Device:Q_NJFET_DSG Q1
U 1 1 608612EA
P 4550 2800
F 0 "Q1" H 4740 2846 50  0000 L CNN
F 1 "MMBF5459" H 4740 2755 50  0000 L CNN
F 2 "Package_TO_SOT_SMD:SOT-23" H 4750 2900 50  0001 C CNN
F 3 "~" H 4550 2800 50  0001 C CNN
	1    4550 2800
	1    0    0    -1  
$EndComp
$Comp
L Mechanical:MountingHole_Pad H2
U 1 1 6095E902
P 7950 800
F 0 "H2" H 8050 849 50  0000 L CNN
F 1 "MountingHole_Pad" H 8050 758 50  0000 L CNN
F 2 "MountingHole:MountingHole_2.7mm_M2.5_Pad_Via" H 7950 800 50  0001 C CNN
F 3 "~" H 7950 800 50  0001 C CNN
	1    7950 800 
	1    0    0    -1  
$EndComp
Wire Wire Line
	7950 900  7950 1000
$Comp
L power:GND #PWR06
U 1 1 6096A981
P 7950 1000
F 0 "#PWR06" H 7950 750 50  0001 C CNN
F 1 "GND" H 7955 827 50  0000 C CNN
F 2 "" H 7950 1000 50  0001 C CNN
F 3 "" H 7950 1000 50  0001 C CNN
	1    7950 1000
	1    0    0    -1  
$EndComp
$Comp
L Connector:Conn_01x01_Male J5
U 1 1 609CF885
P 10450 1000
F 0 "J5" H 10422 932 50  0000 R CNN
F 1 "Conn_01x01_Male" H 10422 1023 50  0000 R CNN
F 2 "Connector_Wire:SR_AWG26" H 10450 1000 50  0001 C CNN
F 3 "~" H 10450 1000 50  0001 C CNN
	1    10450 1000
	-1   0    0    1   
$EndComp
$Comp
L Connector:Conn_01x01_Male J6
U 1 1 609D215E
P 10450 1150
F 0 "J6" H 10422 1082 50  0000 R CNN
F 1 "Conn_01x01_Male" H 10422 1173 50  0000 R CNN
F 2 "Connector_Wire:SR_AWG26" H 10450 1150 50  0001 C CNN
F 3 "~" H 10450 1150 50  0001 C CNN
	1    10450 1150
	-1   0    0    1   
$EndComp
Wire Wire Line
	10250 1000 10050 1000
Wire Wire Line
	9650 1000 10050 1000
Wire Wire Line
	9650 850  9650 1000
$Comp
L power:PWR_FLAG #FLG01
U 1 1 60841267
P 9650 850
F 0 "#FLG01" H 9650 925 50  0001 C CNN
F 1 "PWR_FLAG" H 9650 1023 50  0000 C CNN
F 2 "" H 9650 850 50  0001 C CNN
F 3 "~" H 9650 850 50  0001 C CNN
	1    9650 850 
	1    0    0    -1  
$EndComp
Connection ~ 10050 1000
$Comp
L Connector:Conn_01x01_Male J7
U 1 1 609FE512
P 10450 1300
F 0 "J7" H 10422 1232 50  0000 R CNN
F 1 "Conn_01x01_Male" H 10422 1323 50  0000 R CNN
F 2 "Connector_Wire:SR_AWG26" H 10450 1300 50  0001 C CNN
F 3 "~" H 10450 1300 50  0001 C CNN
	1    10450 1300
	-1   0    0    1   
$EndComp
$Comp
L Connector:Conn_01x01_Male J3
U 1 1 60A02DDD
P 9500 3650
F 0 "J3" H 9472 3582 50  0000 R CNN
F 1 "Conn_01x01_Male" H 9472 3673 50  0000 R CNN
F 2 "Connector:bare_pin" H 9500 3650 50  0001 C CNN
F 3 "~" H 9500 3650 50  0001 C CNN
	1    9500 3650
	-1   0    0    1   
$EndComp
$Comp
L Connector:Conn_01x01_Male J4
U 1 1 60A04AD4
P 9500 3800
F 0 "J4" H 9472 3732 50  0000 R CNN
F 1 "Conn_01x01_Male" H 9472 3823 50  0000 R CNN
F 2 "Connector:bare_pin" H 9500 3800 50  0001 C CNN
F 3 "~" H 9500 3800 50  0001 C CNN
	1    9500 3800
	-1   0    0    1   
$EndComp
Wire Wire Line
	9100 3800 9300 3800
Wire Wire Line
	9100 3800 9100 3900
Wire Wire Line
	9300 3650 8900 3650
NoConn ~ 7550 4000
$EndSCHEMATC
