EESchema Schematic File Version 4
EELAYER 30 0
EELAYER END
$Descr A4 11693 8268
encoding utf-8
Sheet 1 1
Title ""
Date ""
Rev ""
Comp ""
Comment1 ""
Comment2 ""
Comment3 ""
Comment4 ""
$EndDescr
$Comp
L Device:Q_NPN_BEC Q3
U 1 1 606CA857
P 5650 2850
F 0 "Q3" H 5841 2896 50  0000 L CNN
F 1 "BFR93A" H 5841 2805 50  0000 L CNN
F 2 "Package_TO_SOT_SMD:SOT-23" H 5850 2950 50  0001 C CNN
F 3 "~" H 5650 2850 50  0001 C CNN
	1    5650 2850
	1    0    0    -1  
$EndComp
$Comp
L Device:Q_NPN_BEC Q5
U 1 1 606CBEBC
P 7500 2850
F 0 "Q5" H 7691 2896 50  0000 L CNN
F 1 "BFR93A" H 7691 2805 50  0000 L CNN
F 2 "Package_TO_SOT_SMD:SOT-23" H 7700 2950 50  0001 C CNN
F 3 "~" H 7500 2850 50  0001 C CNN
	1    7500 2850
	1    0    0    -1  
$EndComp
$Comp
L Device:Q_PNP_BEC Q4
U 1 1 606CC14A
P 5650 4800
F 0 "Q4" H 5840 4754 50  0000 L CNN
F 1 "NTE2403" H 5840 4845 50  0000 L CNN
F 2 "Package_TO_SOT_SMD:SOT-23" H 5850 4900 50  0001 C CNN
F 3 "~" H 5650 4800 50  0001 C CNN
	1    5650 4800
	1    0    0    1   
$EndComp
$Comp
L Device:Q_PNP_BEC Q6
U 1 1 606CD705
P 7500 4800
F 0 "Q6" H 7690 4754 50  0000 L CNN
F 1 "NTE2403" H 7690 4845 50  0000 L CNN
F 2 "Package_TO_SOT_SMD:SOT-23" H 7700 4900 50  0001 C CNN
F 3 "~" H 7500 4800 50  0001 C CNN
	1    7500 4800
	1    0    0    1   
$EndComp
$Comp
L Device:R R15
U 1 1 606CF8B0
P 7600 3300
F 0 "R15" H 7670 3346 50  0000 L CNN
F 1 "1R" H 7670 3255 50  0000 L CNN
F 2 "Resistor_SMD:R_0805_2012Metric_Pad1.15x1.40mm_HandSolder" V 7530 3300 50  0001 C CNN
F 3 "~" H 7600 3300 50  0001 C CNN
	1    7600 3300
	1    0    0    -1  
$EndComp
$Comp
L Device:R R16
U 1 1 606D017B
P 7600 4350
F 0 "R16" H 7670 4396 50  0000 L CNN
F 1 "1R" H 7670 4305 50  0000 L CNN
F 2 "Resistor_SMD:R_0805_2012Metric_Pad1.15x1.40mm_HandSolder" V 7530 4350 50  0001 C CNN
F 3 "~" H 7600 4350 50  0001 C CNN
	1    7600 4350
	1    0    0    -1  
$EndComp
Wire Wire Line
	7600 3150 7600 3050
Wire Wire Line
	7600 4500 7600 4600
$Comp
L Device:R R18
U 1 1 606D0CC2
P 8400 3800
F 0 "R18" V 8193 3800 50  0000 C CNN
F 1 "47R" V 8284 3800 50  0000 C CNN
F 2 "Resistor_SMD:R_0805_2012Metric_Pad1.15x1.40mm_HandSolder" V 8330 3800 50  0001 C CNN
F 3 "~" H 8400 3800 50  0001 C CNN
	1    8400 3800
	0    -1   -1   0   
$EndComp
$Comp
L Device:R R14
U 1 1 606D1E9D
P 7600 2000
F 0 "R14" H 7670 2046 50  0000 L CNN
F 1 "820R" H 7670 1955 50  0000 L CNN
F 2 "Resistor_SMD:R_0805_2012Metric_Pad1.15x1.40mm_HandSolder" V 7530 2000 50  0001 C CNN
F 3 "~" H 7600 2000 50  0001 C CNN
	1    7600 2000
	1    0    0    -1  
$EndComp
$Comp
L Device:R R17
U 1 1 606D25C9
P 7600 5300
F 0 "R17" H 7670 5346 50  0000 L CNN
F 1 "820R" H 7670 5255 50  0000 L CNN
F 2 "Resistor_SMD:R_0805_2012Metric_Pad1.15x1.40mm_HandSolder" V 7530 5300 50  0001 C CNN
F 3 "~" H 7600 5300 50  0001 C CNN
	1    7600 5300
	1    0    0    -1  
$EndComp
Wire Wire Line
	7600 5000 7600 5100
$Comp
L power:+12V #PWR024
U 1 1 606D34F5
P 7600 1600
F 0 "#PWR024" H 7600 1450 50  0001 C CNN
F 1 "+12V" H 7615 1773 50  0000 C CNN
F 2 "" H 7600 1600 50  0001 C CNN
F 3 "" H 7600 1600 50  0001 C CNN
	1    7600 1600
	1    0    0    -1  
$EndComp
$Comp
L power:-12V #PWR025
U 1 1 606D3C33
P 7600 5950
F 0 "#PWR025" H 7600 6050 50  0001 C CNN
F 1 "-12V" H 7615 6123 50  0000 C CNN
F 2 "" H 7600 5950 50  0001 C CNN
F 3 "" H 7600 5950 50  0001 C CNN
	1    7600 5950
	-1   0    0    1   
$EndComp
$Comp
L Device:R R12
U 1 1 606D67FC
P 7050 2850
F 0 "R12" V 6843 2850 50  0000 C CNN
F 1 "10R" V 6934 2850 50  0000 C CNN
F 2 "Resistor_SMD:R_0805_2012Metric_Pad1.15x1.40mm_HandSolder" V 6980 2850 50  0001 C CNN
F 3 "~" H 7050 2850 50  0001 C CNN
	1    7050 2850
	0    1    1    0   
$EndComp
$Comp
L Device:R R13
U 1 1 606D6E30
P 7050 4800
F 0 "R13" V 6843 4800 50  0000 C CNN
F 1 "10R" V 6934 4800 50  0000 C CNN
F 2 "Resistor_SMD:R_0805_2012Metric_Pad1.15x1.40mm_HandSolder" V 6980 4800 50  0001 C CNN
F 3 "~" H 7050 4800 50  0001 C CNN
	1    7050 4800
	0    1    1    0   
$EndComp
Wire Wire Line
	7200 2850 7300 2850
Wire Wire Line
	7200 4800 7300 4800
$Comp
L Device:R R9
U 1 1 606D7BAB
P 5750 3300
F 0 "R9" H 5820 3346 50  0000 L CNN
F 1 "1.6k" H 5820 3255 50  0000 L CNN
F 2 "Resistor_SMD:R_0805_2012Metric_Pad1.15x1.40mm_HandSolder" V 5680 3300 50  0001 C CNN
F 3 "~" H 5750 3300 50  0001 C CNN
	1    5750 3300
	1    0    0    -1  
$EndComp
$Comp
L Device:R R10
U 1 1 606D8238
P 5750 4350
F 0 "R10" H 5820 4396 50  0000 L CNN
F 1 "1.6k" H 5820 4305 50  0000 L CNN
F 2 "Resistor_SMD:R_0805_2012Metric_Pad1.15x1.40mm_HandSolder" V 5680 4350 50  0001 C CNN
F 3 "~" H 5750 4350 50  0001 C CNN
	1    5750 4350
	1    0    0    -1  
$EndComp
$Comp
L power:+12V #PWR018
U 1 1 606D8E0B
P 5750 4100
F 0 "#PWR018" H 5750 3950 50  0001 C CNN
F 1 "+12V" H 5765 4273 50  0000 C CNN
F 2 "" H 5750 4100 50  0001 C CNN
F 3 "" H 5750 4100 50  0001 C CNN
	1    5750 4100
	1    0    0    -1  
$EndComp
$Comp
L power:-12V #PWR017
U 1 1 606DA238
P 5750 3550
F 0 "#PWR017" H 5750 3650 50  0001 C CNN
F 1 "-12V" H 5765 3723 50  0000 C CNN
F 2 "" H 5750 3550 50  0001 C CNN
F 3 "" H 5750 3550 50  0001 C CNN
	1    5750 3550
	-1   0    0    1   
$EndComp
Wire Wire Line
	5750 3550 5750 3450
Wire Wire Line
	5750 4100 5750 4200
Wire Wire Line
	5750 4500 5750 4550
Wire Wire Line
	5750 3150 5750 3100
Connection ~ 5750 3100
Wire Wire Line
	5750 3100 5750 3050
Connection ~ 5750 4550
Wire Wire Line
	5750 4550 5750 4600
Wire Wire Line
	5750 3100 6050 3100
Wire Wire Line
	6900 4800 6700 4800
Wire Wire Line
	5750 4550 6050 4550
Wire Wire Line
	6700 2850 6900 2850
Wire Wire Line
	6050 3100 6700 4800
Wire Wire Line
	6050 4550 6700 2850
$Comp
L Device:R R8
U 1 1 606E8F83
P 5750 2000
F 0 "R8" H 5820 2046 50  0000 L CNN
F 1 "680R" H 5820 1955 50  0000 L CNN
F 2 "Resistor_SMD:R_0805_2012Metric_Pad1.15x1.40mm_HandSolder" V 5680 2000 50  0001 C CNN
F 3 "~" H 5750 2000 50  0001 C CNN
	1    5750 2000
	1    0    0    -1  
$EndComp
$Comp
L Device:R R11
U 1 1 606E955C
P 5750 5300
F 0 "R11" H 5820 5346 50  0000 L CNN
F 1 "680R" H 5820 5255 50  0000 L CNN
F 2 "Resistor_SMD:R_0805_2012Metric_Pad1.15x1.40mm_HandSolder" V 5680 5300 50  0001 C CNN
F 3 "~" H 5750 5300 50  0001 C CNN
	1    5750 5300
	1    0    0    -1  
$EndComp
$Comp
L power:-12V #PWR019
U 1 1 606F14A8
P 5750 6050
F 0 "#PWR019" H 5750 6150 50  0001 C CNN
F 1 "-12V" H 5765 6223 50  0000 C CNN
F 2 "" H 5750 6050 50  0001 C CNN
F 3 "" H 5750 6050 50  0001 C CNN
	1    5750 6050
	-1   0    0    1   
$EndComp
$Comp
L power:+12V #PWR016
U 1 1 606F2E65
P 5750 1600
F 0 "#PWR016" H 5750 1450 50  0001 C CNN
F 1 "+12V" H 5765 1773 50  0000 C CNN
F 2 "" H 5750 1600 50  0001 C CNN
F 3 "" H 5750 1600 50  0001 C CNN
	1    5750 1600
	1    0    0    -1  
$EndComp
Wire Wire Line
	5750 5450 5750 5550
$Comp
L Device:R R6
U 1 1 606F637D
P 5150 2850
F 0 "R6" V 4943 2850 50  0000 C CNN
F 1 "10R" V 5034 2850 50  0000 C CNN
F 2 "Resistor_SMD:R_0805_2012Metric_Pad1.15x1.40mm_HandSolder" V 5080 2850 50  0001 C CNN
F 3 "~" H 5150 2850 50  0001 C CNN
	1    5150 2850
	0    1    1    0   
$EndComp
$Comp
L Device:R R7
U 1 1 606F6D06
P 5150 4800
F 0 "R7" V 4943 4800 50  0000 C CNN
F 1 "10R" V 5034 4800 50  0000 C CNN
F 2 "Resistor_SMD:R_0805_2012Metric_Pad1.15x1.40mm_HandSolder" V 5080 4800 50  0001 C CNN
F 3 "~" H 5150 4800 50  0001 C CNN
	1    5150 4800
	0    1    1    0   
$EndComp
Wire Wire Line
	5300 2850 5450 2850
Wire Wire Line
	5300 4800 5450 4800
$Comp
L Device:C C16
U 1 1 607083BD
P 8250 2600
F 0 "C16" H 8365 2646 50  0000 L CNN
F 1 "4.7n" H 8365 2555 50  0000 L CNN
F 2 "Capacitor_SMD:C_0805_2012Metric_Pad1.15x1.40mm_HandSolder" H 8288 2450 50  0001 C CNN
F 3 "~" H 8250 2600 50  0001 C CNN
	1    8250 2600
	1    0    0    -1  
$EndComp
$Comp
L Device:C C15
U 1 1 60708E69
P 8100 5350
F 0 "C15" H 8215 5396 50  0000 L CNN
F 1 "4.7n" H 8215 5305 50  0000 L CNN
F 2 "Capacitor_SMD:C_0805_2012Metric_Pad1.15x1.40mm_HandSolder" H 8138 5200 50  0001 C CNN
F 3 "~" H 8100 5350 50  0001 C CNN
	1    8100 5350
	1    0    0    -1  
$EndComp
Wire Wire Line
	8100 5200 8100 5100
Wire Wire Line
	8100 5100 7600 5100
Connection ~ 7600 5100
Wire Wire Line
	7600 5100 7600 5150
Wire Wire Line
	8250 2750 8250 2850
$Comp
L power:GND #PWR026
U 1 1 60712274
P 8100 5950
F 0 "#PWR026" H 8100 5700 50  0001 C CNN
F 1 "GND" H 8105 5777 50  0000 C CNN
F 2 "" H 8100 5950 50  0001 C CNN
F 3 "" H 8100 5950 50  0001 C CNN
	1    8100 5950
	1    0    0    -1  
$EndComp
$Comp
L power:GND #PWR027
U 1 1 6071275F
P 8250 2850
F 0 "#PWR027" H 8250 2600 50  0001 C CNN
F 1 "GND" H 8255 2677 50  0000 C CNN
F 2 "" H 8250 2850 50  0001 C CNN
F 3 "" H 8250 2850 50  0001 C CNN
	1    8250 2850
	1    0    0    -1  
$EndComp
$Comp
L Device:C C11
U 1 1 60716EEA
P 6200 5400
F 0 "C11" H 6315 5446 50  0000 L CNN
F 1 "4.7n" H 6315 5355 50  0000 L CNN
F 2 "Capacitor_SMD:C_0805_2012Metric_Pad1.15x1.40mm_HandSolder" H 6238 5250 50  0001 C CNN
F 3 "~" H 6200 5400 50  0001 C CNN
	1    6200 5400
	1    0    0    -1  
$EndComp
$Comp
L Device:C C12
U 1 1 607194FD
P 6350 2600
F 0 "C12" H 6465 2646 50  0000 L CNN
F 1 "4.7n" H 6465 2555 50  0000 L CNN
F 2 "Capacitor_SMD:C_0805_2012Metric_Pad1.15x1.40mm_HandSolder" H 6388 2450 50  0001 C CNN
F 3 "~" H 6350 2600 50  0001 C CNN
	1    6350 2600
	1    0    0    -1  
$EndComp
Wire Wire Line
	6350 2450 6350 2400
Wire Wire Line
	6350 2750 6350 2850
Wire Wire Line
	6200 5550 6200 6050
Wire Wire Line
	6200 5250 6200 5100
$Comp
L power:GND #PWR020
U 1 1 60722EDA
P 6200 6050
F 0 "#PWR020" H 6200 5800 50  0001 C CNN
F 1 "GND" H 6205 5877 50  0000 C CNN
F 2 "" H 6200 6050 50  0001 C CNN
F 3 "" H 6200 6050 50  0001 C CNN
	1    6200 6050
	1    0    0    -1  
$EndComp
$Comp
L power:GND #PWR021
U 1 1 60723C11
P 6350 2850
F 0 "#PWR021" H 6350 2600 50  0001 C CNN
F 1 "GND" H 6355 2677 50  0000 C CNN
F 2 "" H 6350 2850 50  0001 C CNN
F 3 "" H 6350 2850 50  0001 C CNN
	1    6350 2850
	1    0    0    -1  
$EndComp
Wire Wire Line
	9950 1000 9950 800 
Wire Wire Line
	10150 1150 9650 1150
Wire Wire Line
	9650 1150 9650 1250
Wire Wire Line
	10150 1300 9950 1300
Wire Wire Line
	9950 1300 9950 1750
$Comp
L power:GND #PWR029
U 1 1 60840243
P 9650 1250
F 0 "#PWR029" H 9650 1000 50  0001 C CNN
F 1 "GND" H 9655 1077 50  0000 C CNN
F 2 "" H 9650 1250 50  0001 C CNN
F 3 "" H 9650 1250 50  0001 C CNN
	1    9650 1250
	1    0    0    -1  
$EndComp
$Comp
L power:-12V #PWR033
U 1 1 608405D6
P 9950 1900
F 0 "#PWR033" H 9950 2000 50  0001 C CNN
F 1 "-12V" H 9965 2073 50  0000 C CNN
F 2 "" H 9950 1900 50  0001 C CNN
F 3 "" H 9950 1900 50  0001 C CNN
	1    9950 1900
	-1   0    0    1   
$EndComp
$Comp
L power:+12V #PWR032
U 1 1 60840B43
P 9950 800
F 0 "#PWR032" H 9950 650 50  0001 C CNN
F 1 "+12V" H 9965 973 50  0000 C CNN
F 2 "" H 9950 800 50  0001 C CNN
F 3 "" H 9950 800 50  0001 C CNN
	1    9950 800 
	1    0    0    -1  
$EndComp
$Comp
L power:PWR_FLAG #FLG02
U 1 1 608418D5
P 10300 1700
F 0 "#FLG02" H 10300 1775 50  0001 C CNN
F 1 "PWR_FLAG" H 10300 1873 50  0000 C CNN
F 2 "" H 10300 1700 50  0001 C CNN
F 3 "~" H 10300 1700 50  0001 C CNN
	1    10300 1700
	1    0    0    -1  
$EndComp
Wire Wire Line
	9950 1750 10300 1750
Wire Wire Line
	10300 1750 10300 1700
Connection ~ 9950 1750
Wire Wire Line
	9950 1750 9950 1900
$Comp
L Device:C C14
U 1 1 606E381B
P 7300 2100
F 0 "C14" H 7415 2146 50  0000 L CNN
F 1 "C" H 7415 2055 50  0000 L CNN
F 2 "Capacitor_SMD:C_0805_2012Metric_Pad1.15x1.40mm_HandSolder" H 7338 1950 50  0001 C CNN
F 3 "~" H 7300 2100 50  0001 C CNN
	1    7300 2100
	1    0    0    -1  
$EndComp
$Comp
L Device:C C18
U 1 1 606E438E
P 9550 2050
F 0 "C18" H 9665 2096 50  0000 L CNN
F 1 "22u" H 9665 2005 50  0000 L CNN
F 2 "Capacitor_SMD:C_1210_3225Metric_Pad1.33x2.70mm_HandSolder" H 9588 1900 50  0001 C CNN
F 3 "~" H 9550 2050 50  0001 C CNN
	1    9550 2050
	1    0    0    -1  
$EndComp
Wire Wire Line
	7600 1600 7600 1700
Wire Wire Line
	7300 1950 7300 1700
Wire Wire Line
	7300 1700 7600 1700
Connection ~ 7600 1700
Wire Wire Line
	7600 1700 7600 1850
Wire Wire Line
	7300 2250 7300 2350
$Comp
L power:GND #PWR023
U 1 1 60800F14
P 7300 2350
F 0 "#PWR023" H 7300 2100 50  0001 C CNN
F 1 "GND" H 7305 2177 50  0000 C CNN
F 2 "" H 7300 2350 50  0001 C CNN
F 3 "" H 7300 2350 50  0001 C CNN
	1    7300 2350
	1    0    0    -1  
$EndComp
$Comp
L Device:C C8
U 1 1 6081E077
P 5400 3650
F 0 "C8" H 5515 3696 50  0000 L CNN
F 1 "C" H 5515 3605 50  0000 L CNN
F 2 "Capacitor_SMD:C_0805_2012Metric_Pad1.15x1.40mm_HandSolder" H 5438 3500 50  0001 C CNN
F 3 "~" H 5400 3650 50  0001 C CNN
	1    5400 3650
	1    0    0    -1  
$EndComp
$Comp
L Device:C C9
U 1 1 6081F91A
P 5400 4050
F 0 "C9" H 5515 4096 50  0000 L CNN
F 1 "C" H 5515 4005 50  0000 L CNN
F 2 "Capacitor_SMD:C_0805_2012Metric_Pad1.15x1.40mm_HandSolder" H 5438 3900 50  0001 C CNN
F 3 "~" H 5400 4050 50  0001 C CNN
	1    5400 4050
	1    0    0    -1  
$EndComp
Wire Wire Line
	5400 3800 5400 3850
Connection ~ 5400 3850
Wire Wire Line
	5400 3850 5400 3900
$Comp
L power:GND #PWR013
U 1 1 608398E3
P 5000 4000
F 0 "#PWR013" H 5000 3750 50  0001 C CNN
F 1 "GND" H 5005 3827 50  0000 C CNN
F 2 "" H 5000 4000 50  0001 C CNN
F 3 "" H 5000 4000 50  0001 C CNN
	1    5000 4000
	1    0    0    -1  
$EndComp
$Comp
L Device:C C10
U 1 1 6083C1CE
P 5450 5800
F 0 "C10" H 5565 5846 50  0000 L CNN
F 1 "C" H 5565 5755 50  0000 L CNN
F 2 "Capacitor_SMD:C_0805_2012Metric_Pad1.15x1.40mm_HandSolder" H 5488 5650 50  0001 C CNN
F 3 "~" H 5450 5800 50  0001 C CNN
	1    5450 5800
	1    0    0    -1  
$EndComp
Wire Wire Line
	5450 5550 5750 5550
Connection ~ 5750 5550
Wire Wire Line
	5750 5550 5750 6050
Wire Wire Line
	5750 2150 5750 2400
Wire Wire Line
	5750 2400 6350 2400
Connection ~ 5750 2400
Wire Wire Line
	5750 2400 5750 2650
Wire Wire Line
	5450 5550 5450 5650
Wire Wire Line
	7600 5450 7600 5500
$Comp
L Device:C C13
U 1 1 609835DD
P 7200 5700
F 0 "C13" H 7315 5746 50  0000 L CNN
F 1 "C" H 7315 5655 50  0000 L CNN
F 2 "Capacitor_SMD:C_0805_2012Metric_Pad1.15x1.40mm_HandSolder" H 7238 5550 50  0001 C CNN
F 3 "~" H 7200 5700 50  0001 C CNN
	1    7200 5700
	1    0    0    -1  
$EndComp
Wire Wire Line
	7200 5550 7200 5500
Wire Wire Line
	7200 5500 7600 5500
Connection ~ 7600 5500
Wire Wire Line
	7600 5500 7600 5950
Wire Wire Line
	5400 3500 5400 3450
Wire Wire Line
	5400 3450 5750 3450
Connection ~ 5750 3450
Wire Wire Line
	5400 4200 5750 4200
Connection ~ 5750 4200
Wire Wire Line
	5400 1700 5400 1850
$Comp
L power:GND #PWR014
U 1 1 607FF621
P 5400 2300
F 0 "#PWR014" H 5400 2050 50  0001 C CNN
F 1 "GND" H 5405 2127 50  0000 C CNN
F 2 "" H 5400 2300 50  0001 C CNN
F 3 "" H 5400 2300 50  0001 C CNN
	1    5400 2300
	1    0    0    -1  
$EndComp
Wire Wire Line
	5400 2150 5400 2300
Wire Wire Line
	5750 1700 5750 1850
Wire Wire Line
	5750 1600 5750 1700
Connection ~ 5750 1700
Wire Wire Line
	5400 1700 5750 1700
$Comp
L Device:C C7
U 1 1 606E4A46
P 5400 2000
F 0 "C7" H 5515 2046 50  0000 L CNN
F 1 "C" H 5515 1955 50  0000 L CNN
F 2 "Capacitor_SMD:C_0805_2012Metric_Pad1.15x1.40mm_HandSolder" H 5438 1850 50  0001 C CNN
F 3 "~" H 5400 2000 50  0001 C CNN
	1    5400 2000
	1    0    0    -1  
$EndComp
Wire Wire Line
	5750 5000 5750 5100
Wire Wire Line
	5750 5100 6200 5100
Connection ~ 5750 5100
Wire Wire Line
	5750 5100 5750 5150
$Comp
L Connector:Conn_01x01_Male J1
U 1 1 60B778E4
P 2150 3850
F 0 "J1" H 2258 4031 50  0000 C CNN
F 1 "Conn_01x01_Male" H 2258 3940 50  0000 C CNN
F 2 "Connector:bare_pin" H 2150 3850 50  0001 C CNN
F 3 "~" H 2150 3850 50  0001 C CNN
	1    2150 3850
	1    0    0    -1  
$EndComp
$Comp
L Connector:Conn_01x01_Male J2
U 1 1 60B7817D
P 2150 4200
F 0 "J2" H 2258 4381 50  0000 C CNN
F 1 "Conn_01x01_Male" H 2258 4290 50  0000 C CNN
F 2 "Connector:bare_pin" H 2150 4200 50  0001 C CNN
F 3 "~" H 2150 4200 50  0001 C CNN
	1    2150 4200
	1    0    0    -1  
$EndComp
Wire Wire Line
	2350 4200 2550 4200
Wire Wire Line
	2550 4200 2550 4400
$Comp
L power:GND #PWR01
U 1 1 60BA6F74
P 2550 4400
F 0 "#PWR01" H 2550 4150 50  0001 C CNN
F 1 "GND" H 2555 4227 50  0000 C CNN
F 2 "" H 2550 4400 50  0001 C CNN
F 3 "" H 2550 4400 50  0001 C CNN
	1    2550 4400
	1    0    0    -1  
$EndComp
Wire Wire Line
	8100 5500 8100 5950
Wire Wire Line
	5000 4000 5000 3850
$Comp
L power:GND #PWR0102
U 1 1 60BF4ADE
P 5450 6050
F 0 "#PWR0102" H 5450 5800 50  0001 C CNN
F 1 "GND" H 5455 5877 50  0000 C CNN
F 2 "" H 5450 6050 50  0001 C CNN
F 3 "" H 5450 6050 50  0001 C CNN
	1    5450 6050
	1    0    0    -1  
$EndComp
Wire Wire Line
	5450 6050 5450 5950
$Comp
L power:GND #PWR0103
U 1 1 60C07DC4
P 7200 5950
F 0 "#PWR0103" H 7200 5700 50  0001 C CNN
F 1 "GND" H 7205 5777 50  0000 C CNN
F 2 "" H 7200 5950 50  0001 C CNN
F 3 "" H 7200 5950 50  0001 C CNN
	1    7200 5950
	1    0    0    -1  
$EndComp
Wire Wire Line
	7200 5950 7200 5850
$Comp
L power:GND #PWR0105
U 1 1 60C2E3ED
P 8950 4100
F 0 "#PWR0105" H 8950 3850 50  0001 C CNN
F 1 "GND" H 8955 3927 50  0000 C CNN
F 2 "" H 8950 4100 50  0001 C CNN
F 3 "" H 8950 4100 50  0001 C CNN
	1    8950 4100
	1    0    0    -1  
$EndComp
$Comp
L Mechanical:MountingHole_Pad H1
U 1 1 6074F9F9
P 2550 4950
F 0 "H1" H 2650 4999 50  0000 L CNN
F 1 "MountingHole_Pad" H 2650 4908 50  0000 L CNN
F 2 "MountingHole:MountingHole_2.7mm_M2.5_Pad_Via" H 2550 4950 50  0001 C CNN
F 3 "~" H 2550 4950 50  0001 C CNN
	1    2550 4950
	1    0    0    -1  
$EndComp
Wire Wire Line
	2550 5050 2550 5200
$Comp
L power:GND #PWR05
U 1 1 607598E8
P 2550 5200
F 0 "#PWR05" H 2550 4950 50  0001 C CNN
F 1 "GND" H 2555 5027 50  0000 C CNN
F 2 "" H 2550 5200 50  0001 C CNN
F 3 "" H 2550 5200 50  0001 C CNN
	1    2550 5200
	1    0    0    -1  
$EndComp
$Comp
L Connector:Conn_01x01_Male J5
U 1 1 609CF885
P 10350 1000
F 0 "J5" H 10322 932 50  0000 R CNN
F 1 "Conn_01x01_Male" H 10322 1023 50  0000 R CNN
F 2 "Connector_Wire:SR_AWG26" H 10350 1000 50  0001 C CNN
F 3 "~" H 10350 1000 50  0001 C CNN
	1    10350 1000
	-1   0    0    1   
$EndComp
$Comp
L Connector:Conn_01x01_Male J6
U 1 1 609D215E
P 10350 1150
F 0 "J6" H 10322 1082 50  0000 R CNN
F 1 "Conn_01x01_Male" H 10322 1173 50  0000 R CNN
F 2 "Connector_Wire:SR_AWG26" H 10350 1150 50  0001 C CNN
F 3 "~" H 10350 1150 50  0001 C CNN
	1    10350 1150
	-1   0    0    1   
$EndComp
Wire Wire Line
	10150 1000 9950 1000
Wire Wire Line
	9550 1000 9950 1000
Wire Wire Line
	9550 850  9550 1000
$Comp
L power:PWR_FLAG #FLG01
U 1 1 60841267
P 9550 850
F 0 "#FLG01" H 9550 925 50  0001 C CNN
F 1 "PWR_FLAG" H 9550 1023 50  0000 C CNN
F 2 "" H 9550 850 50  0001 C CNN
F 3 "~" H 9550 850 50  0001 C CNN
	1    9550 850 
	1    0    0    -1  
$EndComp
Connection ~ 9950 1000
$Comp
L Connector:Conn_01x01_Male J7
U 1 1 609FE512
P 10350 1300
F 0 "J7" H 10322 1232 50  0000 R CNN
F 1 "Conn_01x01_Male" H 10322 1323 50  0000 R CNN
F 2 "Connector_Wire:SR_AWG26" H 10350 1300 50  0001 C CNN
F 3 "~" H 10350 1300 50  0001 C CNN
	1    10350 1300
	-1   0    0    1   
$EndComp
$Comp
L Connector:Conn_01x01_Male J3
U 1 1 60A02DDD
P 9350 3800
F 0 "J3" H 9322 3732 50  0000 R CNN
F 1 "Conn_01x01_Male" H 9322 3823 50  0000 R CNN
F 2 "Connector:bare_pin" H 9350 3800 50  0001 C CNN
F 3 "~" H 9350 3800 50  0001 C CNN
	1    9350 3800
	-1   0    0    1   
$EndComp
$Comp
L Connector:Conn_01x01_Male J4
U 1 1 60A04AD4
P 9350 4000
F 0 "J4" H 9322 3932 50  0000 R CNN
F 1 "Conn_01x01_Male" H 9322 4023 50  0000 R CNN
F 2 "Connector:bare_pin" H 9350 4000 50  0001 C CNN
F 3 "~" H 9350 4000 50  0001 C CNN
	1    9350 4000
	-1   0    0    1   
$EndComp
Wire Wire Line
	8950 4000 9150 4000
Wire Wire Line
	8950 4000 8950 4100
$Comp
L Switch:SW_SPDT SW1
U 1 1 60902A7E
P 2750 3850
F 0 "SW1" H 2750 4135 50  0000 C CNN
F 1 "SW_SPDT" H 2750 4044 50  0000 C CNN
F 2 "Button_Switch_SMD:Nidec_SPDT_CJS-1200B1" H 2750 3850 50  0001 C CNN
F 3 "~" H 2750 3850 50  0001 C CNN
	1    2750 3850
	1    0    0    -1  
$EndComp
Wire Wire Line
	2550 3850 2350 3850
$Comp
L Device:C C1
U 1 1 60920945
P 3700 3750
F 0 "C1" V 3448 3750 50  0000 C CNN
F 1 "1u" V 3539 3750 50  0000 C CNN
F 2 "Capacitor_SMD:C_0805_2012Metric_Pad1.15x1.40mm_HandSolder" H 3738 3600 50  0001 C CNN
F 3 "~" H 3700 3750 50  0001 C CNN
	1    3700 3750
	0    1    1    0   
$EndComp
Wire Wire Line
	3850 3750 4250 3750
$Comp
L Device:R R1
U 1 1 60966956
P 4550 3850
F 0 "R1" V 4343 3850 50  0000 C CNN
F 1 "10k" V 4434 3850 50  0000 C CNN
F 2 "Resistor_SMD:R_0805_2012Metric_Pad1.15x1.40mm_HandSolder" V 4480 3850 50  0001 C CNN
F 3 "~" H 4550 3850 50  0001 C CNN
	1    4550 3850
	0    1    1    0   
$EndComp
Wire Wire Line
	4700 3850 5000 3850
Wire Wire Line
	4250 2850 5000 2850
Wire Wire Line
	4250 4800 5000 4800
Connection ~ 4250 3750
Wire Wire Line
	4250 3750 4250 3850
Wire Wire Line
	4250 2850 4250 3750
Wire Wire Line
	4400 3850 4250 3850
Connection ~ 4250 3850
Connection ~ 5000 3850
Wire Wire Line
	5000 3850 5400 3850
Wire Wire Line
	4250 3850 4250 3950
$Comp
L Device:R R3
U 1 1 60A8D582
P 3700 3950
F 0 "R3" V 3900 3950 50  0000 C CNN
F 1 "10k" V 3800 3950 50  0000 C CNN
F 2 "Resistor_SMD:R_0805_2012Metric_Pad1.15x1.40mm_HandSolder" V 3630 3950 50  0001 C CNN
F 3 "~" H 3700 3950 50  0001 C CNN
	1    3700 3950
	0    1    1    0   
$EndComp
Wire Wire Line
	3850 3950 4000 3950
Connection ~ 4250 3950
Wire Wire Line
	4250 3950 4250 4800
$Comp
L Device:C C2
U 1 1 60934C14
P 3700 4300
F 0 "C2" V 3550 4300 50  0000 C CNN
F 1 "C" V 3450 4300 50  0000 C CNN
F 2 "Capacitor_SMD:C_0805_2012Metric_Pad1.15x1.40mm_HandSolder" H 3738 4150 50  0001 C CNN
F 3 "~" H 3700 4300 50  0001 C CNN
	1    3700 4300
	0    -1   -1   0   
$EndComp
Wire Wire Line
	3850 4300 4000 4300
Wire Wire Line
	4000 4300 4000 3950
Connection ~ 4000 3950
Wire Wire Line
	4000 3950 4250 3950
Wire Wire Line
	3550 4300 3400 4300
Wire Wire Line
	3400 4300 3400 3950
Connection ~ 3400 3950
Wire Wire Line
	3400 3950 3550 3950
Wire Wire Line
	9550 2300 9550 2200
$Comp
L power:GND #PWR0108
U 1 1 60C6F157
P 9550 2300
F 0 "#PWR0108" H 9550 2050 50  0001 C CNN
F 1 "GND" H 9555 2127 50  0000 C CNN
F 2 "" H 9550 2300 50  0001 C CNN
F 3 "" H 9550 2300 50  0001 C CNN
	1    9550 2300
	1    0    0    -1  
$EndComp
Wire Wire Line
	9050 1750 9050 1900
$Comp
L power:+12V #PWR034
U 1 1 60704F64
P 9050 1750
F 0 "#PWR034" H 9050 1600 50  0001 C CNN
F 1 "+12V" H 9065 1923 50  0000 C CNN
F 2 "" H 9050 1750 50  0001 C CNN
F 3 "" H 9050 1750 50  0001 C CNN
	1    9050 1750
	1    0    0    -1  
$EndComp
$Comp
L Device:C C20
U 1 1 606E3160
P 9050 2050
F 0 "C20" H 9165 2096 50  0000 L CNN
F 1 "22u" H 9165 2005 50  0000 L CNN
F 2 "Capacitor_SMD:C_1210_3225Metric_Pad1.33x2.70mm_HandSolder" H 9088 1900 50  0001 C CNN
F 3 "~" H 9050 2050 50  0001 C CNN
	1    9050 2050
	1    0    0    -1  
$EndComp
Wire Wire Line
	7600 3450 7600 3800
Connection ~ 7600 3800
Wire Wire Line
	7600 3800 7600 4200
Wire Wire Line
	8550 3800 9150 3800
Wire Wire Line
	9550 1900 9550 1750
Wire Wire Line
	9550 1750 9950 1750
Connection ~ 9650 1150
Wire Wire Line
	9200 1150 9650 1150
Wire Wire Line
	9200 1000 9200 1150
$Comp
L power:PWR_FLAG #FLG0101
U 1 1 60CA0F17
P 9200 1000
F 0 "#FLG0101" H 9200 1075 50  0001 C CNN
F 1 "PWR_FLAG" H 9200 1173 50  0000 C CNN
F 2 "" H 9200 1000 50  0001 C CNN
F 3 "~" H 9200 1000 50  0001 C CNN
	1    9200 1000
	1    0    0    -1  
$EndComp
$Comp
L power:GND #PWR02
U 1 1 609D5579
P 9050 2350
F 0 "#PWR02" H 9050 2100 50  0001 C CNN
F 1 "GND" H 9055 2177 50  0000 C CNN
F 2 "" H 9050 2350 50  0001 C CNN
F 3 "" H 9050 2350 50  0001 C CNN
	1    9050 2350
	1    0    0    -1  
$EndComp
Wire Wire Line
	9050 2200 9050 2350
Wire Wire Line
	7600 2150 7600 2350
Wire Wire Line
	8250 2450 8250 2350
Wire Wire Line
	8250 2350 7600 2350
Connection ~ 7600 2350
Wire Wire Line
	7600 2350 7600 2650
Wire Wire Line
	7600 3800 8250 3800
Wire Wire Line
	2950 3750 3550 3750
Wire Wire Line
	2950 3950 3400 3950
$EndSCHEMATC
